…
The regular season team totals data is then joined with data from the
base endpoint of the stats API. The result is a table with information
about active teams.

``` r
totalsRegular <- totalsRegular %>% mutate(avgGoalsAgainst = goalsAgainst / gamesPlayed, avgGoalsFor = goalsFor / gamesPlayed)

totalsRegularActive <- left_join(teams, totalsRegular, by = c("name" = "teamName"), suffix = c(".teams", ".stats"))

totalsRegularActive
```

    ## # A tibble: 31 x 62
    ##    id.teams name  link  abbreviation
    ##       <int> <chr> <chr> <chr>       
    ##  1        1 New ~ /api~ NJD         
    ##  2        2 New ~ /api~ NYI         
    ##  3        3 New ~ /api~ NYR         
    ##  4        4 Phil~ /api~ PHI         
    ##  5        5 Pitt~ /api~ PIT         
    ##  6        6 Bost~ /api~ BOS         
    ##  7        7 Buff~ /api~ BUF         
    ##  8        8 Mont~ /api~ MTL         
    ##  9        9 Otta~ /api~ OTT         
    ## 10       10 Toro~ /api~ TOR         
    ## # ... with 21 more rows, and 58 more
    ## #   variables: teamName <chr>,
    ## #   locationName <chr>,
    ## #   firstYearOfPlay <chr>,
    ## #   shortName <chr>,
    ## #   officialSiteUrl <chr>,
    ## #   franchiseId.teams <int>,
    ## #   active <lgl>, venue.name <chr>,
    ## #   venue.link <chr>,
…
``` r
skaters <- getNHL(API = "records", recTable = "franchise-skater-records") 
skaters
```

    ## # A tibble: 16,871 x 30
    ##       id activePlayer assists firstName
    ##    <int> <lgl>          <int> <chr>    
    ##  1 16888 FALSE            417 George   
    ##  2 16889 FALSE              0 Billy    
    ##  3 16890 FALSE            794 Johnny   
    ##  4 16891 FALSE            712 Jean     
    ##  5 16892 FALSE           1111 Ray      
    ##  6 16893 FALSE             33 Harold   
    ##  7 16894 FALSE             13 Herb     
    ##  8 16895 FALSE            852 Bobby    
    ##  9 16896 FALSE            142 Ken      
    ## 10 16897 FALSE              0 Gerry    
    ## # ... with 16,861 more rows, and 26
    ## #   more variables: franchiseId <int>,
    ## #   franchiseName <chr>,
    ## #   gameTypeId <int>,
    ## #   gamesPlayed <int>, goals <int>,
    ## #   lastName <chr>,
    ## #   mostAssistsGameDates <chr>,
    ## #   mostAssistsOneGame <int>,
    ## #   mostAssistsOneSeason <int>,
…
``` r
skatersSmall <- skaters %>% filter(franchiseName %in% totalsRegular[["teamName"]], positionCode != "D", goals > 200) %>% rename("teamName" = "franchiseName") %>% select(c("teamName", "goals", "positionCode"))

skatersSmall
```

    ## # A tibble: 228 x 3
    ##    teamName          goals positionCode
    ##    <chr>             <int> <chr>       
    ##  1 Toronto Maple Le~   296 R           
    ##  2 Boston Bruins       545 L           
    ##  3 Montréal Canadie~   507 C           
    ##  4 Philadelphia Fly~   358 C           
    ##  5 St. Louis Blues     352 C           
    ##  6 Carolina Hurrica~   382 C           
    ##  7 New York Rangers    406 R           
    ##  8 Detroit Red Wings   786 R           
    ##  9 Montréal Canadie~   358 C           
    ## 10 Pittsburgh Pengu~   690 C           
    ## # ... with 218 more rows

``` r
skatersTeamTotals <- inner_join(skatersSmall, totalsPost, by = "teamName")
skatersTeamTotals
```

    ## # A tibble: 224 x 34
    ##    teamName goals positionCode    id
    ##    <chr>    <int> <chr>        <int>
    ##  1 Toronto~   296 R               20
    ##  2 Boston ~   545 L               12
    ##  3 Montréa~   507 C               15
    ##  4 Philade~   358 C                7
    ##  5 St. Lou~   352 C               38
    ##  6 Carolin~   382 C               23
    ##  7 New Yor~   406 R                6
    ##  8 Detroit~   786 R               34
    ##  9 Montréa~   358 C               15
    ## 10 Pittsbu~   690 C               10
    ## # ... with 214 more rows, and 30 more
    ## #   variables: activeFranchise <int>,
    ## #   firstSeasonId <int>,
    ## #   franchiseId <int>,
    ## #   gameTypeId <int>,
    ## #   gamesPlayed <int>,
    ## #   goalsAgainst <int>,
    ## #   goalsFor <int>, homeLosses <int>,
    ## #   homeOvertimeLosses <int>,
…
