…
# Return franchise goalie records 
goalie <- function(name = NULL, idNum = NULL){
  
  goalieRecords <- getTable("franchise-goalie-records")
  
  filterTable(goalieRecords, nameName = "franchiseName", teamIdName = "franchiseId", name, idNum)
  
} 

goalie(name = "Montréal Canadiens")

## No encoding supplied: defaulting to UTF-8.

## # A tibble: 37 x 29
##       id activePlayer firstName
##    <int> <lgl>        <chr>    
##  1   261 FALSE        Patrick  
##  2   294 TRUE         Carey    
##  3   296 FALSE        Jacques  
##  4   327 FALSE        George   
##  5   414 FALSE        Stephane 
##  6   437 FALSE        Jeff     
##  7   450 FALSE        Brian    
##  8   457 FALSE        Denis    
##  9   469 FALSE        Pat      
## 10   511 FALSE        Roland   
## # ... with 27 more rows, and 26 more
## #   variables: franchiseId <int>,
## #   franchiseName <chr>,
## #   gameTypeId <int>,
## #   gamesPlayed <int>, lastName <chr>,
## #   losses <int>,
## #   mostGoalsAgainstDates <chr>,
## #   mostGoalsAgainstOneGame <int>,
## #   mostSavesDates <chr>,
…
skater <- function(name = NULL, idNum = NULL){
  
  skaterRecords <- getTable("franchise-skater-records") 
  
  filterTable(skaterRecords, nameName = "franchiseName", teamIdName = "franchiseId", name, idNum) 
  
}

skater(name = "Montréal Canadiens")

## No encoding supplied: defaulting to UTF-8.

## # A tibble: 788 x 30
##       id activePlayer assists firstName
##    <int> <lgl>          <int> <chr>    
##  1 16891 FALSE            712 Jean     
##  2 16911 FALSE            688 Henri    
##  3 16990 FALSE            422 Maurice  
##  4 17000 FALSE            728 Guy      
##  5 17025 FALSE             87 Chris    
##  6 17054 FALSE            368 Steve    
##  7 17074 FALSE            346 Peter    
##  8 17138 FALSE            369 Mats     
##  9 17191 FALSE            686 Larry    
## 10 17199 FALSE              0 Reg      
## # ... with 778 more rows, and 26 more
## #   variables: franchiseId <int>,
## #   franchiseName <chr>,
## #   gameTypeId <int>,
## #   gamesPlayed <int>, goals <int>,
## #   lastName <chr>,
## #   mostAssistsGameDates <chr>,
## #   mostAssistsOneGame <int>,
## #   mostAssistsOneSeason <int>,
…
  # MODIFIER
  # teamId
  if(modifier == "teamId"){
    stats <- getStatsTable(modifier, teamIds = teamIds) 
    return(stats) 
  }
  
} 

teamStats()

## # A tibble: 31 x 29
##       id name  link  abbreviation
##    <int> <chr> <chr> <chr>       
##  1     1 New ~ /api~ NJD         
##  2     2 New ~ /api~ NYI         
##  3     3 New ~ /api~ NYR         
##  4     4 Phil~ /api~ PHI         
##  5     5 Pitt~ /api~ PIT         
##  6     6 Bost~ /api~ BOS         
##  7     7 Buff~ /api~ BUF         
##  8     8 Mont~ /api~ MTL         
##  9     9 Otta~ /api~ OTT         
## 10    10 Toro~ /api~ TOR         
## # ... with 21 more rows, and 25 more
## #   variables: teamName <chr>,
## #   locationName <chr>,
## #   firstYearOfPlay <chr>,
## #   shortName <chr>,
## #   officialSiteUrl <chr>,
## #   franchiseId <int>, active <lgl>,
## #   venue.name <chr>,
## #   venue.link <chr>,
…
teamStats(modifier = "team.schedule.previous")

## # A tibble: 31 x 68
##       id name  link.x abbreviation
##    <int> <chr> <chr>  <chr>       
##  1     1 New ~ /api/~ NJD         
##  2     2 New ~ /api/~ NYI         
##  3     3 New ~ /api/~ NYR         
##  4     4 Phil~ /api/~ PHI         
##  5     5 Pitt~ /api/~ PIT         
##  6     6 Bost~ /api/~ BOS         
##  7     7 Buff~ /api/~ BUF         
##  8     8 Mont~ /api/~ MTL         
##  9     9 Otta~ /api/~ OTT         
## 10    10 Toro~ /api/~ TOR         
## # ... with 21 more rows, and 64 more
## #   variables: teamName <chr>,
## #   locationName <chr>,
## #   firstYearOfPlay <chr>,
## #   shortName <chr>,
## #   officialSiteUrl <chr>,
## #   franchiseId <int>, active <lgl>,
## #   venue.name.x <chr>,
## #   venue.link.x <chr>,
…
